%YAML 1.1
%TAG !u! tag:unity3d.com,2011:
--- !u!1045 &1
EditorBuildSettings:
  m_ObjectHideFlags: 0
  serializedVersion: 2
  m_Scenes:
  - enabled: 1
    path: Assets/Scenes/StartScreen.unity
    guid: ad6999efe7f2f8743a84af61988ff14a
  - enabled: 1
    path: Assets/Scenes/LevelSelect.unity
    guid: 2cda990e2423bbf4892e6590ba056729
  - enabled: 1
    path: Assets/Scenes/Level1.unity
    guid: 29b36fe735813d54abca5d956efaae16
  m_configObjects: {}
